lab11.sim/sim_1/behav/xsim/simulate.log
Vivado Simulator 2020.1
Time resolution is 1 ps
Starting simulation...
Time: 0 | PC=xxxxxxxxxxxxxxxx | rd= x | rs1= x | rs2= x | WriteBack Reg= x
Branch Taken: 0, Target: xxxxxxxxxxxxxxxx
Time: 5000 | PC=0000000000000000 | rd= x | rs1= x | rs2= x | WriteBack Reg= x
Branch Taken: 0, Target: 0000000000000020
Time: 15000 | PC=0000000000000004 | rd= 2 | rs1= 0 | rs2=16 | WriteBack Reg= x
Branch Taken: 0, Target: 0000000000000024
Time: 25000 | PC=0000000000000008 | rd= x | rs1= x | rs2= x | WriteBack Reg= x
Branch Taken: 0, Target: 0000000000000028
Time: 35000 | PC=000000000000000c | rd= x | rs1= x | rs2= x | WriteBack Reg= x
Branch Taken: 0, Target: 000000000000002c
Time: 45000 | PC=0000000000000010 | rd= x | rs1= x | rs2= x | WriteBack Reg= 2
Branch Taken: 0, Target: 0000000000000030
Time: 55000 | PC=0000000000000014 | rd= x | rs1= x | rs2= x | WriteBack Reg= x
Branch Taken: 0, Target: 0000000000000034
Time: 65000 | PC=0000000000000018 | rd= x | rs1= x | rs2= x | WriteBack Reg= x
Branch Taken: 0, Target: 0000000000000038
Time: 75000 | PC=000000000000001c | rd= x | rs1= x | rs2= x | WriteBack Reg= x
Branch Taken: 0, Target: 000000000000003c
Time: 85000 | PC=0000000000000020 | rd= x | rs1= x | rs2= x | WriteBack Reg= x
Branch Taken: 0, Target: 0000000000000040
Time: 95000 | PC=0000000000000024 | rd= x | rs1= x | rs2= x | WriteBack Reg= x
Branch Taken: 0, Target: 0000000000000044
Time: 105000 | PC=0000000000000028 | rd= x | rs1= x | rs2= x | WriteBack Reg= x
Branch Taken: 0, Target: 0000000000000048
Time: 115000 | PC=000000000000002c | rd= x | rs1= x | rs2= x | WriteBack Reg= x
Branch Taken: 0, Target: 000000000000004c
Time: 125000 | PC=0000000000000030 | rd= x | rs1= x | rs2= x | WriteBack Reg= x
Branch Taken: 0, Target: 0000000000000050
Time: 135000 | PC=0000000000000034 | rd= x | rs1= x | rs2= x | WriteBack Reg= x
Branch Taken: 0, Target: 0000000000000054
Time: 145000 | PC=0000000000000038 | rd= x | rs1= x | rs2= x | WriteBack Reg= x
Branch Taken: 0, Target: 0000000000000058
Time: 155000 | PC=000000000000003c | rd= x | rs1= x | rs2= x | WriteBack Reg= x
Branch Taken: 0, Target: 000000000000005c
Time: 165000 | PC=0000000000000040 | rd= x | rs1= x | rs2= x | WriteBack Reg= x
Branch Taken: 0, Target: 0000000000000060
Time: 175000 | PC=0000000000000044 | rd= x | rs1= x | rs2= x | WriteBack Reg= x
Branch Taken: 0, Target: 0000000000000064
Time: 185000 | PC=0000000000000048 | rd= x | rs1= x | rs2= x | WriteBack Reg= x
Branch Taken: 0, Target: 0000000000000068
Time: 195000 | PC=000000000000004c | rd= x | rs1= x | rs2= x | WriteBack Reg= x
Branch Taken: 0, Target: 000000000000006c
Time: 205000 | PC=0000000000000050 | rd= x | rs1= x | rs2= x | WriteBack Reg= x
$finish called at time : 210 ns : File "D:/Habib Uni/Sem 4/CA/Project/lab11.srcs/sim_1/new/tb_RISC_V_Processor.v" Line 53
